Method & Results
…
## # A tibble: 8 x 5
##      id team_name  project                              year  wiki              
##   <dbl> <chr>      <chr>                                <chr> <chr>             
## 1     1 ZJU-China  PaDetector, a household device for … 2019  https://2019.igem…
## 2     2 UCSF       OperationCRISPR                      2013  http://2013.igem.…
## 3     1 iBowu-Chi… Biocontrol of Soft Rot               2019  https://2019.igem…
## 4     2 OUC-China  Logitch: Logic Gates and RNA Switch  2020  https://2020.igem…
## 5     3 Fudan      ALTER                                2019  https://2019.igem…
## 6     1 Nottingham Engineer a phage which will infect … 2018  http://2018.igem.…
## 7     2 UCAS-China Constructing an efficient temperatu… 2019  https://2019.igem…
## 8     3 Stockholm  Create a monitor that can improve c… 2020  https://2020.igem…

igem_part

## # A tibble: 31 x 8
##       id BBid     type    link              backbone team_name user    device_id
##    <dbl> <chr>    <chr>   <chr>             <chr>    <chr>     <chr>   <chr>    
##  1     1 BBa_R00… Promot… http://parts.ige… pSB1C3   ZJU-China aputron <NA>     
##  2     2 BBa_C00… GFP     http://parts.ige… pSB1C3   ZJU-China aputron <NA>     
##  3     3 BBa_B00… Termin… http://parts.ige… pSB1C3   ZJU-China aputron <NA>     
##  4     4 BBa_R00… Promot… http://parts.ige… pCDF     UCSF      aputron <NA>     
##  5     5 Bba_K10… Csy4    http://parts.ige… pACYC    UCSF      aputron <NA>     
##  6     1 BBa_J23… promot… http://parts.ige… PSB3K3   iBowu-Ch… JinjuL… D0001    
##  7     2 BBa_B00… RBS     http://parts.ige… PSB3K3   iBowu-Ch… JinjuL… D0001    
##  8     3 BBa_C00… regula… http://parts.ige… PSB3K3   iBowu-Ch… JinjuL… D0001    
##  9     4 BBa_B00… termin… http://parts.ige… PSB3K3   iBowu-Ch… JinjuL… D0001    
## 10     5 BBa_R00… promot… http://parts.ige… PSB3K3   iBowu-Ch… JinjuL… D0001    
## # … with 21 more rows

igem_obs

## # A tibble: 24 x 12
##    id    indc     conc  value valunit incubhr incubtemp device_id link  concunit
##    <chr> <chr>   <dbl>  <dbl> <chr>   <chr>   <chr>     <chr>     <chr> <chr>   
##  1 1     AHL   1.00e-1     10 FLU     overni… 37 ℃      D0001     http… NA      
##  2 2     AHL   1.00e+0    100 FLU     overni… 37 ℃      D0001     http… NA      
##  3 3     AHL   1.00e+1 200000 FLU     overni… 37 ℃      D0001     http… NA      
##  4 4     AHL   1.00e+2 300000 FLU     overni… 37 ℃      D0001     http… NA      
##  5 5     AHL   5.00e+2 400000 FLU     overni… 37 ℃      D0001     http… NA      
##  6 6     AHL   1.00e+3 350000 FLU     overni… 37 ℃      D0001     http… NA      
##  7 1     HSL   0.          10 fluore… 10 hou… 37 ℃      D0002     http… mg/mL   
##  8 2     HSL   1.00e-3     30 fluore… 10 hou… 37 ℃      D0002     http… mg/mL   
##  9 3     HSL   2.00e-3    130 fluore… 10 hou… 37 ℃      D0002     http… mg/mL   
## 10 4     HSL   1.00e-2    300 fluore… 10 hou… 37 ℃      D0002     http… mg/mL   
## # … with 14 more rows, and 2 more variables: strain <chr>, device_name <chr>
